92
x shape 10778 60
y shape 10778
prots used 

2IYA 3RVF 4QPD 1EM8 1Q3P 2ZOU 4M9A 4R4E 2ARK 1SF8 4INO 1H3C 5EMJ 4K05 2AW2 3LFK 5CHC 2PEZ 2A8X 3GJA 3NO6 1Z85 3FK4 5E53 1X79 1S67 3L0G 2IIR 1HPL 2GSR 3V6A 3KUP 4IRP 3AB5 3KS4 5FA9 5YBV 2CBQ 3TYY 4UDU 1H7B 5VDF 1IIB 3MJP 5IER 5HPS 3VXV 5NYY 1B4N 3TWF 1ZZJ 2FIQ 4PPU 3JSK 3ID1 2LDX 2F3O 2OEE 4EO3 2BB6 1H8P 4NE7 2HEO 1GZ7 4JV6 5CAM 2DVM 3Q6C 4B5X 4LB0 3SOZ 4DM0 1VGR 3QAY 3TFX 1GDH 4LAS 3NDA 4IZ9 4G32 3TB6 4GRW 1XSS 4I52 6FAP 2CFO 1K6Y 4FGS 5NNP 2VOA 4U8U 5Y6A 4QGR 3NND 2OYH 2ZSU 
test prots 
2D40 5B1O 4IJZ 2EBE 4V0H 